{
  "peers": [],
  "secrets": [
    "flame bottom dragon rely endorse garage supply urge turtle team demand put",
    "thrive veteran child enforce puzzle buzz valley crew genuine basket start top",
    "black tool gift useless bring nothing huge vendor asset mix chimney weird",
    "ribbon crumble loud chief turn maid neglect move day churn share fabric",
    "scan prevent agent close human pair aerobic sad forest wave toe dust"
  ],
  "email": {
    "service" : "gmail",
    "host": "smtp.gmail.com",
    "port": 587,
    "auth": {
        "user": "john.vikingsdownload@gmail.com",
        "pass": "Windlm946356"
    },
    "tls": { "rejectUnauthorized": false},
    "debug":true
  },
  "token": {
    "email": "john.bonda7@gmail.com",
    "password": "Windlm@946356",
    "totp": "string"
  },
  "links": {
    "verifyLink": "http://52.201.227.220/payroll_structured/Views/Verify/verify.html"
  },
  "tokenKey": "Implementing JWT tokens"
}
